; ModuleID = 'autocfg_283dae59996b9b57_0.cb697ca1db7dd200-cgu.0'
source_filename = "autocfg_283dae59996b9b57_0.cb697ca1db7dd200-cgu.0"
target datalayout = "e-m:o-p270:32:32-p271:32:32-p272:64:64-i64:64-i128:128-f80:128-n8:16:32:64-S128"
target triple = "x86_64-apple-macosx10.12.0"

!llvm.module.flags = !{!0}
!llvm.ident = !{!1}

!0 = !{i32 8, !"PIC Level", i32 2}
!1 = !{!"rustc version 1.78.0 (9b00956e5 2024-04-29) (Homebrew)"}
